rmapzen: a Mapzen API client for R
…
sf and Spatial*DataFrame conversion

As some of the above examples illustrate, any object returned by a Mapzen service can be converted to the appropriate Spatial*DataFrame or sf object using the generics as_sp and as_sf, for easy interoperability with other packages. You can also convert most objects directly to data frames, allowing for use within tidy pipelines:

require(dplyr)
as.data.frame(oakland_public) %>%
    select(name, confidence, region, locality, neighbourhood)

## # A tibble: 25 x 5
##    name                             confidence region    locality neighbourhood 
##    <chr>                                 <dbl> <chr>     <chr>    <chr>         
##  1 Oakland Public Library - Temesc…      0.926 Californ… Oakland  Shafter       
##  2 Oakland Public Library - Rockri…      0.926 Californ… Oakland  Rockridge     
##  3 Lakeview Branch Oakland Public …      0.664 Californ… Oakland  <NA>          
##  4 Golden Gate Branch Oakland Publ…      0.663 Californ… Oakland  Gaskill       
##  5 Brookfield Village Branch Oakla…      0.663 Californ… Oakland  South Stonehu…
##  6 West Oakland Branch Oakland Pub…      0.663 Californ… Oakland  Ralph Bunche  
##  7 Elmhurst Branch Oakland Public …      0.663 Californ… Oakland  Webster       
##  8 Montclair Branch Oakland Public…      0.663 Californ… Oakland  Montclair     
##  9 Main Branch Oakland Public Libr…      0.663 Californ… Oakland  Civic Center  
## 10 Latin American Branch Oakland P…      0.663 Californ… Oakland  St. Elizabeth 
## # … with 15 more rows
…
